{"success":true,"requestId":null,"resubmitToken":null,"msg":null,"code":0,"content":{"totalCount":1148,"pageNo":1,"pageSize":15,"hasNextPage":true,"totalPageCount":77,"currentPageNo":1,"hasPreviousPage":false,"result":[{"positionId":1283333,"deliverCount":9,"positionName":"Python","orderBy":71,"score":1347,"companyId":22343,"createTime":"2016-02-16 10:02:47","positionAdvantage":"环境优越 技术团队过硬","salary":"10k-20k","workYear":"1-3年","education":"本科","city":"北京","companyName":"优集品","positionType":"后端开发","companyLogo":"image1/M00/00/2A/Cgo8PFTUXG2AVFLXAAA7TCajLYE963.jpg","positionFirstType":"技术","jobNature":"全职","industryField":"电子商务","companyShortName":"北京优集品网络科技有限公司","financeStage":"成熟型(C轮)","leaderName":"鲁宁馨","companySize":"150-500人","companyLabelList":["五险一金","带薪年假","节日礼物","午餐补助"],"calcScore":false,"showOrder":0,"haveDeliver":false,"formatCreateTime":"10:02发布","randomScore":0,"countAdjusted":false,"adjustScore":61,"relScore":1000,"adWord":0,"imstate":"disabled","createTimeSort":1455588167000,"positonTypesMap":null,"hrScore":87,"flowScore":128,"showCount":976,"pvScore":20.165303009089047,"plus":"是","totalCount":0,"searchScore":0.0},{"positionId":1463724,"deliverCount":0,"positionName":"Python","orderBy":69,"score":1321,"companyId":36814,"createTime":"2016-02-16 10:14:47","positionAdvantage":"五险一金、餐补、下午茶、员工旅游等等","salary":"3k-6k","workYear":"应届毕业生","education":"本科","city":"广州","companyName":"粤辰星","positionType":"后端开发","companyLogo":"image1/M00/00/58/CgYXBlTUXSyAGz5bAABerV812GM749.png","positionFirstType":"技术","jobNature":"全职","industryField":"移动互联网 · 游戏","companyShortName":"广州粤辰星电子科技有限公司","financeStage":"成长型(A轮)","leaderName":"暂没有填写","companySize":"50-150人","companyLabelList":["节日礼物","年底双薪","专项奖金","带薪年假"],"calcScore":false,"showOrder":0,"haveDeliver":false,"formatCreateTime":"10:14发布","randomScore":0,"countAdjusted":false,"adjustScore":0,"relScore":1000,"adWord":0,"imstate":"disabled","createTimeSort":1455588887000,"positonTypesMap":null,"hrScore":69,"flowScore":183,"showCount":152,"pvScore":7.346574709923445,"plus":"否","totalCount":0,"searchScore":0.0},{"positionId":1464971,"deliverCount":1,"positionName":"Python","orderBy":60,"score":1320,"companyId":55550,"createTime":"2016-02-16 11:46:29","positionAdvantage":"年轻的互联网团队，开放的工作环境","salary":"15k-25k","workYear":"3-5年","education":"本科","city":"深圳","companyName":"腾云世纪","positionType":"后端开发","companyLogo":"images/logo_default.png","positionFirstType":"技术","jobNature":"全职","industryField":"教育 · 医疗健康","companyShortName":"深圳市腾云世纪信息有限公司","financeStage":"初创型(未融资)","leaderName":"暂没有填写","companySize":"50-150人","companyLabelList":["节日礼物","绩效奖金","岗位晋升","帅哥多"],"calcScore":false,"showOrder":0,"haveDeliver":false,"formatCreateTime":"11:46发布","randomScore":0,"countAdjusted":false,"adjustScore":0,"relScore":1000,"adWord":0,"imstate":"disabled","createTimeSort":1455594389000,"positonTypesMap":null,"hrScore":69,"flowScore":191,"showCount":79,"pvScore":5.654616905099396,"plus":"否","totalCount":0,"searchScore":0.0},{"positionId":1086054,"deliverCount":0,"positionName":"Python","orderBy":68,"score":1312,"companyId":45890,"createTime":"2016-02-16 11:21:46","positionAdvantage":"我们都是潜力股","salary":"12k-20k","workYear":"1-3年","education":"大专","city":"深圳","companyName":"鱿鱼旅行","positionType":"后端开发","companyLogo":"image1/M00/30/15/CgYXBlWGNxCAYDT3AACbczdnpeU223.jpg","positionFirstType":"技术","jobNature":"全职","industryField":"移动互联网 · 旅游","companyShortName":"出游吧（深圳）旅游发展有限公司","financeStage":"初创型(天使轮)","leaderName":"黄绍斌","companySize":"50-150人","companyLabelList":["全新商业模式","寻找合伙人","旅游新大陆","帅哥多"],"calcScore":false,"showOrder":0,"haveDeliver":false,"formatCreateTime":"11:21发布","randomScore":0,"countAdjusted":false,"adjustScore":0,"relScore":1000,"adWord":0,"imstate":"disabled","createTimeSort":1455592906000,"positonTypesMap":null,"hrScore":55,"flowScore":189,"showCount":95,"pvScore":6.0162703792193355,"plus":"否","totalCount":0,"searchScore":0.0},{"positionId":1463626,"deliverCount":1,"positionName":"Python","orderBy":69,"score":1312,"companyId":50285,"createTime":"2016-02-16 10:07:42","positionAdvantage":"奖金丰厚，股权激励","salary":"10k-20k","workYear":"1-3年","education":"本科","city":"深圳","companyName":"众禄基金","positionType":"后端开发","companyLogo":"image1/M00/00/84/CgYXBlTUXeGAET_AAABh5_T_pX8882.png","positionFirstType":"技术","jobNature":"全职","industryField":"电子商务 · 金融","companyShortName":"深圳众禄基金销售有限公司","financeStage":"上市公司","leaderName":"薛峰","companySize":"50-150人","companyLabelList":["股票期权","绩效奖金","专项奖金","技能培训"],"calcScore":false,"showOrder":0,"haveDeliver":false,"formatCreateTime":"10:07发布","randomScore":0,"countAdjusted":false,"adjustScore":0,"relScore":1000,"adWord":0,"imstate":"disabled","createTimeSort":1455588462000,"positonTypesMap":null,"hrScore":64,"flowScore":179,"showCount":155,"pvScore":8.398500017663604,"plus":"否","totalCount":0,"searchScore":0.0},{"positionId":1092678,"deliverCount":1,"positionName":"Python（总部）","orderBy":71,"score":1308,"companyId":43016,"createTime":"2016-02-15 14:55:50","positionAdvantage":"五险一金，股票期权等","salary":"20k-40k","workYear":"3-5年","education":"本科","city":"北京","companyName":"美菜网","positionType":"后端开发","companyLogo":"image2/M00/04/92/CgpzWlXySBqAQsm0AACqIAvx5NQ164.png","positionFirstType":"技术","jobNature":"全职","industryField":"电子商务 · O2O","companyShortName":"北京云杉世界信息技术有限公司","financeStage":"成熟型(C轮)","leaderName":"刘传军","companySize":"2000人以上","companyLabelList":["技能培训","节日礼物","绩效奖金","岗位晋升"],"calcScore":false,"showOrder":0,"haveDeliver":false,"formatCreateTime":"1天前发布","randomScore":0,"countAdjusted":false,"adjustScore":48,"relScore":960,"adWord":0,"imstate":"disabled","createTimeSort":1455519350000,"positonTypesMap":null,"hrScore":90,"flowScore":139,"showCount":1617,"pvScore":17.46422567603482,"plus":"是","totalCount":0,"searchScore":0.0},{"positionId":1463418,"deliverCount":1,"positionName":"Python","orderBy":63,"score":1301,"companyId":112259,"createTime":"2016-02-16 09:52:07","positionAdvantage":"福利杠杠的，升职空间大，牛人多","salary":"8k-16k","workYear":"1-3年","education":"本科","city":"上海","companyName":"协澄网络科技","positionType":"后端开发","companyLogo":"i/image/M00/02/7D/CgqKkVaRy0-Ad-yaAAAWm_KE_no728.png","positionFirstType":"技术","jobNature":"全职","industryField":"移动互联网","companyShortName":"上海协澄网络科技有限公司","financeStage":"成长型(A轮)","leaderName":"暂没有填写","companySize":"150-500人","companyLabelList":[],"calcScore":false,"showOrder":0,"haveDeliver":false,"formatCreateTime":"09:52发布","randomScore":0,"countAdjusted":false,"adjustScore":0,"relScore":1000,"adWord":0,"imstate":"disabled","createTimeSort":1455587527000,"positonTypesMap":null,"hrScore":69,"flowScore":169,"showCount":173,"pvScore":10.613867146705186,"plus":"否","totalCount":0,"searchScore":0.0},{"positionId":547158,"deliverCount":0,"positionName":"Python","orderBy":71,"score":1294,"companyId":9213,"createTime":"2016-02-16 14:22:26","positionAdvantage":"五险+双休+餐补+每半年调薪","salary":"6k-12k","workYear":"1-3年","education":"大专","city":"北京","companyName":"立达方胜","positionType":"后端开发","companyLogo":"image1/M00/36/C4/CgYXBlWfc4SAZfqSAAANer7GaDA807.jpg","positionFirstType":"技术","jobNature":"全职","industryField":"移动互联网","companyShortName":"北京立达方胜信息技术有限公司","financeStage":"成长型(B轮)","leaderName":"仇实","companySize":"50-150人","companyLabelList":["节日礼物","年底双薪","股票期权","带薪年假"],"calcScore":false,"showOrder":1432518330510,"haveDeliver":false,"formatCreateTime":"14:22发布","randomScore":0,"countAdjusted":false,"adjustScore":0,"relScore":1000,"adWord":0,"imstate":"disabled","createTimeSort":1455603746000,"positonTypesMap":null,"hrScore":92,"flowScore":131,"showCount":295,"pvScore":19.495172399187556,"plus":"否","totalCount":0,"searchScore":0.0},{"positionId":1463611,"deliverCount":1,"positionName":"Python","orderBy":66,"score":1290,"companyId":30169,"createTime":"2016-02-16 10:06:38","positionAdvantage":"员工分红计划 高速成长","salary":"5k-10k","workYear":"不限","education":"大专","city":"上海","companyName":"担路网","positionType":"后端开发","companyLogo":"image1/M00/00/43/CgYXBlTUXNSAWJ8FAACewwwMMSc381.jpg","positionFirstType":"技术","jobNature":"全职","industryField":"移动互联网 · 企业服务","companyShortName":"上海担路网络科技有限公司","financeStage":"初创型(未融资)","leaderName":"包雪宁","companySize":"15-50人","companyLabelList":["年终分红","交通补助","定期体检","绩效奖金"],"calcScore":false,"showOrder":0,"haveDeliver":false,"formatCreateTime":"10:06发布","randomScore":0,"countAdjusted":false,"adjustScore":0,"relScore":1000,"adWord":0,"imstate":"disabled","createTimeSort":1455588398000,"positonTypesMap":null,"hrScore":56,"flowScore":168,"showCount":155,"pvScore":10.839958026867656,"plus":"否","totalCount":0,"searchScore":0.0},{"positionId":447868,"deliverCount":0,"positionName":"Python","orderBy":63,"score":1288,"companyId":34420,"createTime":"2016-02-15 12:29:32","positionAdvantage":"五险一金 加班补贴 工作环境爽 人性化团队","salary":"8k以上","workYear":"1-3年","education":"本科","city":"广州","companyName":"图普科技（深度学习图像识别云）","positionType":"后端开发","companyLogo":"image1/M00/00/51/Cgo8PFTUXQ2AN1DOAAAvee1MP5A860.png","positionFirstType":"技术","jobNature":"全职","industryField":"移动互联网 · 数据服务","companyShortName":"广州图普网络科技有限公司","financeStage":"成长型(A轮)","leaderName":"李明强","companySize":"15-50人","companyLabelList":["技能培训","年底双薪","股票期权","带薪年假"],"calcScore":false,"showOrder":1433126533507,"haveDeliver":false,"formatCreateTime":"1天前发布","randomScore":0,"countAdjusted":false,"adjustScore":48,"relScore":1000,"adWord":0,"imstate":"today","createTimeSort":1455510572000,"positonTypesMap":null,"hrScore":89,"flowScore":88,"showCount":1057,"pvScore":29.192850050573114,"plus":"是","totalCount":0,"searchScore":0.0},{"positionId":1453019,"deliverCount":1,"positionName":"Python","orderBy":68,"score":1283,"companyId":90572,"createTime":"2016-02-16 10:58:32","positionAdvantage":"双休 期权分配 弹性工作 零食无限供应","salary":"8k-15k","workYear":"1-3年","education":"本科","city":"西安","companyName":"Demo++","positionType":"后端开发","companyLogo":"image1/M00/44/1B/CgYXBlXUJDuAYPjYAACzR4FmBmQ077.jpg?cc=0.9359600739553571","positionFirstType":"技术","jobNature":"全职","industryField":"移动互联网","companyShortName":"西安巨匠软开网络科技有限公司","financeStage":"初创型(天使轮)","leaderName":"杜挺","companySize":"15-50人","companyLabelList":["股票期权","带薪年假","扁平管理","五险一金"],"calcScore":false,"showOrder":0,"haveDeliver":false,"formatCreateTime":"10:58发布","randomScore":0,"countAdjusted":false,"adjustScore":0,"relScore":1000,"adWord":0,"imstate":"disabled","createTimeSort":1455591512000,"positonTypesMap":null,"hrScore":72,"flowScore":143,"showCount":235,"pvScore":16.733169014331544,"plus":"否","totalCount":0,"searchScore":0.0},{"positionId":1240490,"deliverCount":0,"positionName":"Python","orderBy":60,"score":1281,"companyId":89632,"createTime":"2016-02-15 17:49:09","positionAdvantage":"自由，开放，做自己喜欢的事","salary":"5k-10k","workYear":"1-3年","education":"本科","city":"重庆","companyName":"活动家","positionType":"后端开发","companyLogo":"image1/M00/42/ED/Cgo8PFXNo4uAFW8eAAAq-kT-CIU660.png?cc=0.8504375375341624","positionFirstType":"技术","jobNature":"全职","industryField":"移动互联网","companyShortName":"云数海量","financeStage":"初创型(未融资)","leaderName":"暂没有填写","companySize":"15-50人","companyLabelList":["年底双薪","股票期权","带薪年假","扁平管理"],"calcScore":false,"showOrder":0,"haveDeliver":false,"formatCreateTime":"1天前发布","randomScore":0,"countAdjusted":false,"adjustScore":0,"relScore":1000,"adWord":0,"imstate":"disabled","createTimeSort":1455529749000,"positonTypesMap":null,"hrScore":71,"flowScore":150,"showCount":243,"pvScore":15.03598767983548,"plus":"否","totalCount":0,"searchScore":0.0},{"positionId":1390250,"deliverCount":3,"positionName":"Python","orderBy":69,"score":1279,"companyId":58109,"createTime":"2016-02-16 09:45:47","positionAdvantage":"期权激励，开放式办公，独立楼层","salary":"8k-15k","workYear":"1-3年","education":"本科","city":"上海","companyName":"55海淘","positionType":"后端开发","companyLogo":"image1/M00/26/66/CgYXBlVVTK2AUP4sAABg2gmvuIY042.png","positionFirstType":"技术","jobNature":"全职","industryField":"电子商务","companyShortName":"上海艾琛网络技术有限公司","financeStage":"成长型(A轮)","leaderName":"顾军林","companySize":"150-500人","companyLabelList":["股票期权","带薪年假","绩效奖金","岗位晋升"],"calcScore":false,"showOrder":0,"haveDeliver":false,"formatCreateTime":"09:45发布","randomScore":0,"countAdjusted":false,"adjustScore":76,"relScore":1000,"adWord":0,"imstate":"disabled","createTimeSort":1455587147000,"positonTypesMap":null,"hrScore":50,"flowScore":84,"showCount":584,"pvScore":30.18935598761188,"plus":"是","totalCount":0,"searchScore":0.0},{"positionId":1447473,"deliverCount":1,"positionName":"Python","orderBy":69,"score":1272,"companyId":40092,"createTime":"2016-02-16 14:00:54","positionAdvantage":"与硅谷技术大神共事，经历创业十倍扩张期","salary":"10k-20k","workYear":"1-3年","education":"学历不限","city":"上海","companyName":"现金巴士","positionType":"后端开发","companyLogo":"image1/M00/00/62/Cgo8PFTUXVWAd8BIAAB0tv_Fb14520.jpg","positionFirstType":"技术","jobNature":"全职","industryField":"移动互联网 · 金融","companyShortName":"微额速达(上海)金融信息服务有限公司","financeStage":"成长型(A轮)","leaderName":"唐阳","companySize":"50-150人","companyLabelList":["股票期权","带薪年假","绩效奖金","年终分红"],"calcScore":false,"showOrder":0,"haveDeliver":false,"formatCreateTime":"14:00发布","randomScore":0,"countAdjusted":false,"adjustScore":0,"relScore":1000,"adWord":0,"imstate":"disabled","createTimeSort":1455602454000,"positonTypesMap":null,"hrScore":80,"flowScore":123,"showCount":335,"pvScore":21.294614239537594,"plus":"否","totalCount":0,"searchScore":0.0},{"positionId":1367859,"deliverCount":1,"positionName":"Python","orderBy":69,"score":1270,"companyId":101429,"createTime":"2016-02-16 10:53:56","positionAdvantage":"周末双休 绩效奖金 五险一金 弹性工作","salary":"7k-14k","workYear":"3-5年","education":"大专","city":"郑州","companyName":"春秋网络","positionType":"后端开发","companyLogo":"image2/M00/0E/EF/CgqLKVYm7GGAdvl6AAAnfzmSI6c244.png?cc=0.4911532101687044","positionFirstType":"技术","jobNature":"全职","industryField":"移动互联网 · 游戏","companyShortName":"河南春秋网络科技有限公司","financeStage":"成长型(不需要融资)","leaderName":"暂没有填写","companySize":"50-150人","companyLabelList":["年度旅游","五险一金","弹性工作","扁平管理"],"calcScore":false,"showOrder":0,"haveDeliver":false,"formatCreateTime":"10:53发布","randomScore":0,"countAdjusted":false,"adjustScore":0,"relScore":1000,"adWord":0,"imstate":"disabled","createTimeSort":1455591236000,"positonTypesMap":null,"hrScore":78,"flowScore":123,"showCount":239,"pvScore":21.11475889609938,"plus":"否","totalCount":0,"searchScore":0.0}],"start":0}}